{
    "name": "Surdeigsbr\u00f8d",
    "description": "Gir ett stort br\u00f8d, ca 8-900 g. Jeg har en 6.3l ovnsgryte som jeg baker br\u00f8det i",
    "url": "",
    "image": "/Photos/20200513_213736.jpg",
    "prepTime": "PT0H0M",
    "cookTime": "PT0H0M",
    "totalTime": "PT0H0M",
    "recipeCategory": "Bakverk",
    "keywords": "",
    "recipeYield": 1,
    "tool": [
        "Ovnsgryte",
        "Br\u00f8dform (for andre heving)",
        "Kj\u00f8kkenmaskin (fordel men ikke n\u00f8dvendig)"
    ],
    "recipeIngredient": [
        "70 g surdeig",
        "10 g Grahamsmel",
        "45 g hvetemel",
        "5 g rugmel",
        "50 g vann",
        "330 g vann (ca 33 grader)",
        "430 g hvetemel",
        "30 g Grahamsmel",
        "20 g rugmel",
        "3 g salt"
    ],
    "recipeInstructions": [
        "Bland surdeig om morgenen, 70g fra surdeigstarteren med litt mel og vann (se f\u00f8rste punkter over). La st\u00e5 p\u00e5 kj\u00f8kkenbenken.",
        "Sen ettermiddag vann og surdeigen forsiktig, bland inn mel, la st\u00e5 20-30 min (autolyse)",
        "Str\u00f8 i saltet, elt deigen ferdig (typ 10-15 min i kj\u00f8kkenmaskin). Legg plastfilm over deigen",
        "Deigen skal vendes to ganger i l\u00f8pet av kvelden",
        "Neste morgen ta deig ut av bollen og form til br\u00f8d. Heves helst i br\u00f8dform under h\u00e5ndkle, ca 2 t",
        "Forvarm ovnen med gryta i til 240g, stekes i 25 min under lokk f\u00f8rst, deretter 7 min uten lokk (dette vil variere fra ovn til ovn og etter hvor spr\u00f8 skorpe du vil ha)."
    ],
    "id": "27623",
    "@context": "http://schema.org",
    "@type": "Recipe"
}
