{
    "name": "Kanelboller",
    "description": "Oppskriften gir ca ett brett, typ 11-12 kanelboller litt avhengig av st\u0328\u00f8rrelse. Dette er halvparten av den opprinnelige mengden i oppskriften jeg startet med.",
    "url": "",
    "image": "/Photos/kanelboller.jpg",
    "prepTime": "PT20H0M",
    "cookTime": "PT10H0M",
    "totalTime": "PT60H0M",
    "recipeCategory": "Bakverk",
    "keywords": "",
    "recipeYield": 12,
    "recipeIngredient": [
        "25 g fersk gj\u00e6r",
        "2.5 dl melk",
        "125 g margarin eller sm\u00f8r",
        "70 g sukker",
        "0.5 ts kardemomme",
        "400 g hvetemel",
        "1 egg til pensling (valgfritt, mest for synets skyld)"
    ],
    "recipeInstructions": [
        "Smelt sm\u00f8r eller margarin, ha i melken og varm vesken til 37 grader.",
        "Smuldre gj\u00e6ren i en bolle, r\u00f8r ut med litt av vesken. Ha i resten av vesken.",
        "Bland i melet, sukker og kardemomme. Kna deigen til den er jevn og fin.",
        "La den heve til ca dobbel st\u00f8rrelse.",
        "Bland sm\u00f8r, sukker og kanel til en fyllmasse.",
        "Kjevle ut deigen til et rektangel. Smalere rektangel gir mindre og fler kanelboller...",
        "Sm\u00f8r p\u00e5 fyllblandingen. Kan ogs\u00e5 ha f.eks. litt r\u00e5 epler revet p\u00e5 rivjern.\r\n",
        "Rull deigen samen til en rull. Del i ca 2 cm brede biter med en skarp kniv.",
        "La heve i ca 20 min. Pensle med egg.",
        "Stekes midt i ovnen p\u00e5 ca 250 grader, evt 230 grader varmluft. 5-10 min."
    ],
    "id": "27631",
    "@context": "http://schema.org",
    "@type": "Recipe",
    "dateCreated": "0",
    "dateModified": "1591450173",
    "printImage": "false",
    "imageUrl": "/index.php/apps/cookbook/recipes/27631/image?size=full",
    "tool": []
}
